…
``` r
# Use naniar if available; otherwise do base/tidyverse version
has_naniar <- requireNamespace("naniar", quietly = TRUE)

# Check for missing values using modern dplyr approach
missing_summary <- cancer_sample %>%
  summarise(across(everything(), ~ sum(is.na(.)), .names = "{.col}")) %>%
  tidyr::pivot_longer(everything(), names_to = "variable", values_to = "missing_count") %>%
  arrange(desc(missing_count))

# Display missing value summary
missing_summary
```

    ## # A tibble: 32 × 2
    ##    variable            missing_count
    ##    <chr>                       <int>
    ##  1 ID                              0
    ##  2 diagnosis                       0
    ##  3 radius_mean                     0
    ##  4 texture_mean                    0
    ##  5 perimeter_mean                  0
    ##  6 area_mean                       0
    ##  7 smoothness_mean                 0
    ##  8 compactness_mean                0
    ##  9 concavity_mean                  0
    ## 10 concave_points_mean             0
    ## # ℹ 22 more rows
…
